{
  "project_info": {
    "project_number": "1049618094059",
    "firebase_url": "https://fir-sportdiary.firebaseio.com",
    "project_id": "firebase-sportdiary",
    "storage_bucket": "firebase-sportdiary.appspot.com"
  },
  "client": [
    {
      "client_info": {
        "mobilesdk_app_id": "1:1049618094059:android:9613e10e90446b6e",
        "android_client_info": {
          "package_name": "com.kasimov.sport_diary2"
        }
      },
      "oauth_client": [
        {
          "client_id": "1049618094059-9kvisrh05ruqmcursb6sldvei6oalcuf.apps.googleusercontent.com",
          "client_type": 3
        },
        {
          "client_id": "1049618094059-gk8dlljin1rr70a3p26ssjhbo3hhtjgk.apps.googleusercontent.com",
          "client_type": 3
        }
      ],
      "api_key": [
        {
          "current_key": "AIzaSyCgIjQtBKy0Blj3TEQndelvR9VjQk6OYMw"
        }
      ],
      "services": {
        "analytics_service": {
          "status": 1
        },
        "appinvite_service": {
          "status": 1,
          "other_platform_oauth_client": []
        },
        "ads_service": {
          "status": 2
        }
      }
    }
  ],
  "configuration_version": "1"
}